current directory: /opt/td-agent/embedded/lib/ruby/gems/2.4.0/gems/geoip2_c-0.3.3/ext/geoip2
/opt/td-agent/embedded/bin/ruby -r ./siteconf20190827-17714-1xj2j86.rb extconf.rb
./bootstrap: 7: ./bootstrap: autoreconf: not found
make: *** No rule to make target 'clean'.  Stop.
make: *** No targets specified and no makefile found.  Stop.
checking for rb_sym2str() in ruby.h... yes
creating Makefile

current directory: /opt/td-agent/embedded/lib/ruby/gems/2.4.0/gems/geoip2_c-0.3.3/ext/geoip2
make "DESTDIR=" clean

current directory: /opt/td-agent/embedded/lib/ruby/gems/2.4.0/gems/geoip2_c-0.3.3/ext/geoip2
make "DESTDIR="
compiling geoip2.c
linking shared-object geoip2/geoip2.so

current directory: /opt/td-agent/embedded/lib/ruby/gems/2.4.0/gems/geoip2_c-0.3.3/ext/geoip2
make "DESTDIR=" install
/usr/bin/install -c -m 0755 geoip2.so ./.gem.20190827-17714-1pw8rzu/geoip2
